#1
DW TALADRO DWD024-B3 650W REV/PERC + GUANTES/LENTES+J.DESTORNI 4PCS
Categoría:HERRAMIENTAS ELÉCTRICAS
₡45,493.51 ₡69,990.01
IVA inc.

SKU: 030300081
--------------------
#2
MAKITA TALADRO MOD:HP1630 1/2 REVER/PERC
Categoría:HERRAMIENTAS ELÉCTRICAS
₡58,500.01 ₡97,500.02
IVA inc.

SKU: 030300010

-------------------------














